{
  "package": {
    "productName": "cat-tube",
    "version": "0.1.0"
  },
  "build": {
    "distDir": "../dist",
    "devPath": "http://localhost:3000",
    "beforeDevCommand": "",
    "beforeBuildCommand": ""
  },
  "tauri": {
    "bundle": {
      "active": true,
      "targets": "all",
      "identifier": "com.cat-tube",
      "icon": [
        "icons/logo.ico"
      ],
      "resources": [],
      "externalBin": [],
      "copyright": "supercutcat",
      "category": "DeveloperTool",
      "shortDescription": "YouTube Clone",
      "longDescription": "Cat-tube was inspired by YouTube",
      "deb": {
        "depends": [],
        "useBootstrapper": false
      },
      "macOS": {
        "frameworks": [],
        "minimumSystemVersion": "",
        "useBootstrapper": false,
        "exceptionDomain": "",
        "signingIdentity": null,
        "providerShortName": null,
        "entitlements": null
      },
      "windows": {
        "certificateThumbprint": null,
        "digestAlgorithm": "sha256",
        "timestampUrl": ""
      }
    },
    "updater": {
      "active": false
    },
    "allowlist": {
      "all": true
    },
    "windows": [
      {
        "title": "CatTube",
        "width": 1024,
        "height": 600,
        "resizable": true,
        "fullscreen": false
      }
    ],
    "security": {
      "csp": null
    }
  }
}